{
    "latestVersion": "3.5.4",
    "latestVersionCode": 190030504,
    "url": "https://play.google.com/store/apps/details?id=co.nexlabs.betterhr",
    "releaseNotes": [
        "Version 3.5.4",
        "Department Directory",
        "Withdraw requests (OT, Leave)",
        "Performance improvement",
        "Bug fixes"
    ]
  }
